module servergate

go 1.12

require (
	github.com/Masterminds/goutils v1.1.0 // indirect
	github.com/Masterminds/semver v1.5.0 // indirect
	github.com/Masterminds/sprig v2.22.0+incompatible // indirect
	github.com/aokoli/goutils v1.1.0 // indirect
	github.com/aws/aws-sdk-go v1.25.6 // indirect
	github.com/badoux/checkmail v0.0.0-20181210160741-9661bd69e9ad
	github.com/boj/redistore v0.0.0-20180917114910-cd5dcc76aeff // indirect
	github.com/creack/pty v1.1.9 // indirect
	github.com/dgrijalva/jwt-go v3.2.0+incompatible
	github.com/gin-contrib/cors v1.3.0 // indirect
	github.com/gin-contrib/sessions v0.0.3
	github.com/gin-contrib/sse v0.1.0 // indirect
	github.com/gin-gonic/contrib v0.0.0-20201101042839-6a891bf89f19
	github.com/gin-gonic/gin v1.5.0
	github.com/golang/glog v0.0.0-20160126235308-23def4e6c14b
	github.com/golang/protobuf v1.3.2 // indirect
	github.com/google/uuid v1.1.1 // indirect
	github.com/gorilla/sessions v1.2.0 // indirect
	github.com/imdario/mergo v0.3.8 // indirect
	github.com/jaytaylor/html2text v0.0.0-20190408195923-01ec452cbe43 // indirect
	github.com/jinzhu/gorm v1.9.10
	github.com/joho/godotenv v1.3.0
	github.com/json-iterator/go v1.1.7 // indirect
	github.com/kr/pty v1.1.8 // indirect
	github.com/matcornic/hermes/v2 v2.0.2 // indirect
	github.com/mattn/go-isatty v0.0.9 // indirect
	github.com/mattn/go-runewidth v0.0.4 // indirect
	github.com/minio/minio-go/v6 v6.0.52
	github.com/mitchellh/copystructure v1.0.0 // indirect
	github.com/mitchellh/mapstructure v1.1.2 // indirect
	github.com/myesui/uuid v1.0.0 // indirect
	github.com/rpip/paystack-go v0.0.0-20180509111153-5333b023a74e // indirect
	github.com/rs/cors v1.7.0 // indirect
	github.com/sendgrid/rest v2.4.1+incompatible // indirect
	github.com/sendgrid/sendgrid-go v3.5.0+incompatible // indirect
	github.com/stretchr/objx v0.2.0 // indirect
	github.com/stretchr/testify v1.4.0 // indirect
	github.com/twinj/uuid v1.0.0
	github.com/ugorji/go v1.1.7 // indirect
	golang.org/x/crypto v0.0.0-20191011191535-87dc89f01550
	golang.org/x/net v0.0.0-20191011234655-491137f69257 // indirect
	golang.org/x/oauth2 v0.0.0-20190226205417-e64efc72b421
	golang.org/x/sync v0.0.0-20190911185100-cd5d95a43a6e // indirect
	golang.org/x/sys v0.0.0-20191010194322-b09406accb47 // indirect
	golang.org/x/text v0.3.2 // indirect
	golang.org/x/tools v0.0.0-20191011211836-4c025a95b26e // indirect
	golang.org/x/xerrors v0.0.0-20191011141410-1b5146add898 // indirect
	gopkg.in/alexcesaro/quotedprintable.v3 v3.0.0-20150716171945-2caba252f4dc // indirect
	gopkg.in/check.v1 v1.0.0-20190902080502-41f04d3bba15 // indirect
	gopkg.in/gomail.v2 v2.0.0-20160411212932-81ebce5c23df
	gopkg.in/yaml.v2 v2.2.4 // indirect
)
